================================================================================
PLANO DE AÇÃO - INTEGRAÇÃO FRONTEND/BACKEND
================================================================================

Data: 22 de fevereiro de 2026
Baseado em: RESPOSTA_BACKEND_INTEGRACAO.txt

Este documento organiza todas as ações necessárias para completar a integração
com base nas respostas detalhadas da equipe backend.

================================================================================
SEÇÃO 1: CORREÇÕES CRÍTICAS (FAZER IMEDIATAMENTE)
================================================================================

✅ 1.1 - MIGRAÇÃO FUNDO_CONSUMO → PRE_PAGO
Status: JÁ CORRIGIDO
Arquivos atualizados:
- ModalNovoPedido.vue
- pedido.types.js
- Documentação

Ação: Nenhuma (já implementado)


🔴 1.2 - VALIDAÇÃO DE CLIENTE VINCULADO ANTES DE CRIAR PEDIDO PRE_PAGO
Status: PENDENTE
Problema: Frontend não valida se unidade tem cliente antes de mostrar PRE_PAGO

Ação necessária:
- Em ModalNovoPedido.vue, ao carregar modal:
  * Verificar se props.unidade tem cliente vinculado
  * Se NÃO tiver cliente:
    - DESABILITAR opção PRE_PAGO no radio button
    - Mostrar tooltip: "Vincule um cliente à unidade primeiro"
    - Forçar tipoPagamento para POS_PAGO (se usuário for GERENTE/ADMIN)
    - OU bloquear criação de pedido com mensagem clara

Backend retorna erro 400 se tentar PRE_PAGO sem cliente:
"Unidade de consumo deve ter cliente vinculado para pagamento PRE_PAGO"

Melhor UX: Validar ANTES no frontend para evitar erro desnecessário.


🔴 1.3 - PAYLOAD DE CRIAÇÃO DE PEDIDO
Status: VERIFICAR
Situação atual: Payload enviado está CORRETO segundo backend

Payload atual (ModalNovoPedido.vue linha 329-335):
{
  unidadeConsumoId: props.unidade.id,
  tipoPagamento: tipoPagamento.value,
  itens: carrinho.value.map(item => ({
    produtoId: item.produtoId,
    quantidade: item.quantidade
  }))
}

Backend esperado (RESPOSTA seção 1.1a):
{
  unidadeConsumoId: Long,
  tipoPagamento: "PRE_PAGO" ou "POS_PAGO",
  itens: [
    {
      produtoId: Long,
      quantidade: Integer,
      observacoes: String (opcional)
    }
  ]
}

✅ Payload está CORRETO!

PORÉM, o erro "Valor de débito deve ser maior que zero" pode ser causado por:
a) Produtos com preço = 0 no banco
b) Produtos inativos sendo enviados
c) Quantidade = 0 sendo enviada
d) Bug no backend (improvável)

Ação necessária:
- Adicionar console.log do carrinho completo antes de criar pedido
- Verificar se quantidade > 0
- Adicionar campo observacoes (opcional) ao payload


🔴 1.4 - ADICIONAR OBSERVAÇÕES AO ITEM
Status: PENDENTE
Problema: Carrinho não tem campo observacoes, mas backend aceita

Ação necessária:
- Em ModalNovoPedido.vue:
  * Adicionar campo "observacoes" opcional em cada item do carrinho
  * Mostrar textarea quando usuário clicar em "Adicionar observação"
  * Limite: 500 caracteres (backend valida)
  * Não aceita emojis (backend remove automaticamente)

Enviar no payload:
itens: carrinho.value.map(item => ({
  produtoId: item.produtoId,
  quantidade: item.quantidade,
  observacoes: item.observacoes || undefined // só enviar se tiver
}))


================================================================================
SEÇÃO 2: IMPLEMENTAÇÕES DE SEGURANÇA E VALIDAÇÕES
================================================================================

🔴 2.1 - VALIDAR PERMISSÕES PARA POS_PAGO
Status: PENDENTE
Problema: Qualquer usuário pode selecionar POS_PAGO na UI

Backend só aceita POS_PAGO de: ADMIN e GERENTE
Retorna 403 se ATENDENTE tentar.

Ação necessária:
- Em ModalNovoPedido.vue:
  * Importar authStore
  * Verificar role do usuário logado
  * Se role === 'ATENDENTE':
    - DESABILITAR opção POS_PAGO no radio button
    - Forçar tipoPagamento para PRE_PAGO
    - Mostrar tooltip: "Apenas Gerente pode usar Pós-Pago"

Exemplo:
const authStore = useAuthStore()
const podeUsarPosPago = computed(() => {
  return ['ADMIN', 'GERENTE'].includes(authStore.usuario?.role)
})


🔴 2.2 - CONSULTAR STATUS GLOBAL DE PÓS-PAGO
Status: PENDENTE
Problema: Frontend não verifica se pós-pago está ativo no sistema

Backend pode DESATIVAR pós-pago globalmente via:
POST /api/configuracao-financeira/pos-pago/desativar

Quando desativado, retorna 403: "Pagamento pós-pago está temporariamente 
desativado. Use PRE_PAGO ou aguarde liberação"

Ação necessária:
- Criar configuracaoFinanceiraService.js:
  * GET /api/configuracao-financeira
  * Retorna: { posPagoAtivo: true/false, ... }

- Em ModalNovoPedido.vue:
  * Ao abrir modal (onMounted):
    - Consultar configuração financeira
    - Se posPagoAtivo = false:
      - DESABILITAR opção POS_PAGO
      - Tooltip: "Pós-pago temporariamente indisponível"

- NÃO fazer polling, consultar apenas ao abrir modal


🔴 2.3 - VALIDAR QUANTIDADE MÁXIMA POR ITEM
Status: PENDENTE
Problema: Não há validação de quantidade no frontend

Backend limita: 1 <= quantidade <= 999

Ação necessária:
- Em ModalNovoPedido.vue:
  * Input de quantidade deve ter:
    - min="1"
    - max="999"
    - type="number"
  * Validar antes de adicionar ao carrinho
  * Se quantidade > 999: mostrar erro


🔴 2.4 - VALIDAR PRODUTOS INATIVOS
Status: PENDENTE
Problema: Frontend pode estar mostrando produtos inativos

Backend rejeita produtos com ativo=false:
Erro 400: "Produto {nome} está inativo e não pode ser adicionado ao pedido"

Ação necessária:
- Em lista de produtos:
  * Filtrar apenas produtos com ativo = true
  * Ou desabilitar botão "Adicionar" se inativo
  * Mostrar badge "Indisponível" se inativo


================================================================================
SEÇÃO 3: CONTROLE DE CONCORRÊNCIA E VERSIONAMENTO
================================================================================

🔴 3.1 - IMPLEMENTAR VERSIONAMENTO EM ATUALIZAÇÕES
Status: PENDENTE (mas arquitetura já criada)
Situação: Já temos pedido.store.js com suporte a versionamento

Backend usa campo "version" no body (NÃO header If-Match):
- Ao atualizar pedido, enviar: { version: 3, campo: "valor" }
- Se version desatualizada, retorna 409 Conflict

Ação necessária:
- Usar a arquitetura já criada em src/store/pedido.store.js
- OU adaptar pedidosBalcaoService.js para incluir version nos PUTs
- Tratar erro 409:
  * Fazer GET do pedido atualizado
  * Avisar usuário: "Pedido foi modificado por outro usuário"
  * Recarregar dados


🔴 3.2 - ADICIONAR RETRY AUTOMÁTICO EM 409
Status: PENDENTE
Problema: Sistema não retenta automaticamente em conflitos

Backend retorna 409 quando version é antiga.

Ação necessária:
- Já temos concurrency.helper.js com ConflictResolver
- Integrar com pedidosBalcaoService:
  * Detectar erro 409
  * Fazer GET do pedido
  * Aplicar estratégia de merge (se aplicável)
  * Tentar novamente automaticamente (máximo 3 tentativas)


================================================================================
SEÇÃO 4: WEBSOCKET E TEMPO REAL
================================================================================

🔴 4.1 - IMPLEMENTAR CONEXÃO WEBSOCKET
Status: PARCIALMENTE IMPLEMENTADO
Situação: Já temos useWebSocket.js e websocket.js store

Backend WebSocket:
- URL DEV: ws://localhost:8080/ws
- URL PROD: wss://api.restaurante.com/ws
- Protocolo: STOMP sobre WebSocket
- Autenticação: Token JWT no header Authorization

Ação necessária:
- Atualizar useWebSocket.js:
  * Configurar URL correta do backend
  * Enviar token JWT no handshake:
    - Header: Authorization: Bearer {token}
    - OU query param: ?token={token}

Exemplo (SockJS + Stomp.js):
const socket = new SockJS('ws://localhost:8080/ws?token=' + authStore.token)
const stompClient = Stomp.over(socket)


🔴 4.2 - ASSINAR TÓPICOS CORRETOS
Status: PENDENTE
Problema: Não sabíamos os tópicos exatos do backend

Backend tópicos disponíveis:
- /topic/pedido/{pedidoId} - Atualizações de UM pedido específico
- /topic/unidade/{unidadeId} - Atualizações de TODOS pedidos de uma unidade
- /topic/pedidos - Atualizações de TODOS pedidos (apenas ADMIN)

Ação necessária:
- Em PedidosBalcaoView.vue:
  * Assinar /topic/unidade/{unidadeId} da unidade selecionada
  * Ao receber evento:
    - PEDIDO_CRIADO: adicionar à lista
    - PEDIDO_ATUALIZADO: atualizar na lista
    - STATUS_ALTERADO: atualizar status visual
    - PEDIDO_PRONTO: mostrar notificação sonora


🔴 4.3 - TRATAR EVENTOS WEBSOCKET
Status: PENDENTE
Problema: Não sabíamos estrutura dos eventos

Backend envia eventos com estrutura:
{
  "evento": "PEDIDO_ATUALIZADO",
  "timestamp": "2026-02-22T15:30:00",
  "pedido": { ...pedido completo atualizado... },
  "version": 5,
  "alteradoPor": "Maria Atendente"
}

Ação necessária:
- Em websocket.js store ou usePedidoWebSocket.js:
  * Ao receber evento:
    - Extrair pedido do payload
    - Atualizar store local (substituir objeto completo)
    - Atualizar version
    - Mostrar notificação visual se relevante

Eventos a tratar:
- PEDIDO_CRIADO
- PEDIDO_ATUALIZADO
- ITEM_ADICIONADO
- ITEM_REMOVIDO
- STATUS_ALTERADO
- SUBPEDIDO_ATUALIZADO
- PEDIDO_PRONTO (mostrar alerta sonoro)
- PEDIDO_FINALIZADO


🔴 4.4 - IMPLEMENTAR RECONEXÃO AUTOMÁTICA
Status: PENDENTE
Problema: Se conexão cair, não reconecta

Backend NÃO guarda eventos perdidos durante desconexão.

Ação necessária:
- Em useWebSocket.js:
  * Detectar desconexão (evento onClose)
  * Implementar retry com backoff exponencial:
    - 1ª tentativa: 1 segundo depois
    - 2ª tentativa: 2 segundos
    - 3ª tentativa: 4 segundos
    - 4ª tentativa: 8 segundos
    - Máximo: 30 segundos
  * Após reconectar:
    - Fazer GET dos pedidos ativos
    - Reassinar tópicos
  * Mostrar indicador visual de "desconectado"


================================================================================
SEÇÃO 5: MELHORIAS DE UX E FEEDBACK
================================================================================

🔴 5.1 - MOSTRAR DADOS DO FUNDO APÓS CRIAÇÃO
Status: PENDENTE
Problema: Não exibimos saldo atualizado após débito

Backend retorna no response de criação de pedido PRE_PAGO:
{
  ...,
  "unidadeConsumo": {
    "cliente": {
      "fundoConsumo": {
        "saldoAnterior": 10000.00,
        "saldoAtual": 4500.00,
        "valorDebitado": 5500.00
      }
    }
  },
  "transacaoFundoId": 891
}

Ação necessária:
- Após criar pedido PRE_PAGO:
  * Extrair dados do fundo do response
  * Mostrar toast/notificação:
    "Pedido criado! Debitado: 55,00 Kz | Saldo: 45,00 Kz"
  * Atualizar fundoConsumo local com novo saldo


🔴 5.2 - MOSTRAR PROGRESSO DOS SUBPEDIDOS
Status: PENDENTE (OPCIONAL)
Problema: Usuário não vê status individual por cozinha

Backend cria subpedidos automaticamente por TipoPreparo:
- QUENTE (Cozinha Principal)
- FRIO (Cozinha Fria)
- BAR (Bar/Cafeteria)

Cada subpedido tem status independente:
- PENDENTE → RECEBIDO → EM_PREPARACAO → PRONTO → ENTREGUE

Ação necessária (OPCIONAL):
- Criar componente SubPedidosProgress.vue
- Exibir cards por cozinha:
  * BAR: ✅ PRONTO (2 itens)
  * COZINHA: 🔄 EM_PREPARACAO (3 itens)
- Usar ícones/cores para status


🔴 5.3 - AUDIO NOTIFICATION PARA PEDIDO PRONTO
Status: PENDENTE
Problema: Garçom não é alertado quando pedido fica pronto

Backend envia evento PEDIDO_PRONTO via WebSocket quando TODOS subpedidos 
ficam PRONTO.

Ação necessária:
- Já temos src/utils/audio.js e public/sounds/
- Ao receber evento PEDIDO_PRONTO:
  * Tocar som de notificação
  * Mostrar alerta visual destacado
  * Vibrar (se mobile)

Exemplo:
import { playNotificationSound } from '@/utils/audio'

socket.on('PEDIDO_PRONTO', (event) => {
  playNotificationSound()
  notificationStore.sucesso('Pedido pronto para retirada!', { timeout: 10000 })
})


🔴 5.4 - MENSAGENS DE ERRO AMIGÁVEIS
Status: PARCIAL
Problema: Alguns erros mostram mensagens técnicas

Backend retorna mensagens em português no campo "message", mas algumas podem
ser muito técnicas.

Ação necessária:
- Criar dicionário de erros:
  * Mapear mensagens do backend para mensagens amigáveis
  * Exemplo:
    Backend: "Saldo insuficiente no fundo de consumo. Saldo atual: 2.500,00..."
    Frontend: "Saldo insuficiente! Faltam 25,00 Kz. Deseja recarregar?"

- Para erros com objeto "detalhe":
  * Usar dados do detalhe para construir mensagem rica
  * Exemplo limite pós-pago:
    "Limite excedido! Disponível: 5.000,00 Kz"


================================================================================
SEÇÃO 6: CORREÇÕES EM SERVIÇOS E STORES
================================================================================

🔴 6.1 - ATUALIZAR pedidosBalcaoService.js
Status: PENDENTE
Problema: Comentários ainda mencionam FUNDO_CONSUMO

Ação necessária:
- Em pedidosBalcaoService.js:
  * Linha 23: Trocar "@param {string} dados.tipoPagamento - FUNDO_CONSUMO (default) ou POS_PAGO"
  * Para: "@param {string} dados.tipoPagamento - PRE_PAGO ou POS_PAGO"
  * Linha 25: Trocar "Processa pagamento (se FUNDO_CONSUMO)"
  * Para: "Processa pagamento (se PRE_PAGO - débito imediato)"


🔴 6.2 - ADICIONAR ENDPOINT DE CONFIRMAR PAGAMENTO POS_PAGO
Status: PENDENTE
Problema: Não temos função para fechar conta pós-paga

Backend endpoint:
PUT /api/pedidos/{pedidoId}/confirmar-pagamento

Body:
{
  "formaPagamento": "DINHEIRO" | "CARTAO_DEBITO" | "CARTAO_CREDITO" | "PIX" | "TRANSFERENCIA",
  "valorRecebido": 60000.00,
  "observacoes": "Cliente pagou em espécie"
}

Ação necessária:
- Em pedidosBalcaoService.js, adicionar:
  async confirmarPagamento(pedidoId, dados) {
    const response = await api.put(`/pedidos/${pedidoId}/confirmar-pagamento`, dados)
    return response.data
  }

- Criar modal/tela para fechar conta:
  * Selecionar forma de pagamento
  * Input de valor recebido
  * Campo observações opcional
  * Botão "Confirmar Pagamento"


🔴 6.3 - ADICIONAR SERVIÇO DE CONFIGURAÇÃO FINANCEIRA
Status: PENDENTE
Problema: Não temos service para consultar config

Backend endpoints:
- GET /api/configuracao-financeira
- POST /api/configuracao-financeira/pos-pago/ativar (ADMIN only)
- POST /api/configuracao-financeira/pos-pago/desativar (ADMIN only)

Ação necessária:
- Criar src/services/configuracaoFinanceiraService.js:
  * getConfiguracao()
  * ativarPosPago()
  * desativarPosPago()

- Permissões:
  * GET: ADMIN, GERENTE
  * POST: ADMIN apenas


🔴 6.4 - ADICIONAR HISTÓRICO DE TRANSAÇÕES DO FUNDO
Status: PENDENTE
Problema: Cliente não consegue ver histórico de débitos

Backend endpoint:
GET /api/fundos/{fundoId}/transacoes?dataInicio=2026-02-01&dataFim=2026-02-28&page=0&size=20

Retorna paginado:
{
  "content": [ ...transações... ],
  "totalElements": 156,
  "totalPages": 8
}

Ação necessária:
- Em fundoConsumoService.js, adicionar:
  async getTransacoes(fundoId, filtros = {}) {
    const params = new URLSearchParams(filtros)
    const response = await api.get(`/fundos/${fundoId}/transacoes?${params}`)
    return response.data
  }

- Criar tela/modal HistoricoTransacoes.vue:
  * Lista paginada de transações
  * Filtros por data e tipo
  * Mostrar: data, tipo, valor, responsável, observação


================================================================================
SEÇÃO 7: CASOS DE USO E CENÁRIOS ESPECIAIS
================================================================================

🔴 7.1 - IMPLEMENTAR CANCELAMENTO DE PEDIDO
Status: PENDENTE
Problema: Não temos UI para cancelar pedido

Backend:
- Pedido em CRIADO: qualquer ADMIN/GERENTE/ATENDENTE pode cancelar
- Pedido em EM_ANDAMENTO: apenas ADMIN/GERENTE
- Cancelamento de PRE_PAGO: estorno automático e imediato

Ação necessária:
- Em pedidosBalcaoService.js:
  * Adicionar endpoint DELETE /api/pedidos/{id}

- Em UI de detalhes do pedido:
  * Botão "Cancelar Pedido"
  * Modal de confirmação: "Tem certeza? Esta ação não pode ser desfeita"
  * Input de motivo (opcional)
  * Verificar permissão baseado em status


🔴 7.2 - ADICIONAR/REMOVER ITENS DE PEDIDO EXISTENTE
Status: PENDENTE
Problema: Não há UI para editar pedido criado

Backend permite apenas se pedido em CRIADO:
- POST /api/pedidos/{id}/itens (adicionar)
- DELETE /api/pedidos/{id}/itens/{itemId} (remover - apenas ADMIN/GERENTE)

Ação necessária:
- Criar modal EditarPedido.vue:
  * Mostrar itens atuais
  * Permitir adicionar novos produtos
  * Permitir remover itens (se ADMIN/GERENTE)
  * Recalcula total automaticamente
  * Desabilitar se status != CRIADO


🔴 7.3 - IMPLEMENTAR FECHAMENTO DE UNIDADE
Status: PENDENTE
Problema: Não há fluxo para liberar mesa após cliente sair

Backend:
- PUT /api/unidades-consumo/{id}/fechar
- Valida se todos pedidos estão FINALIZADOS ou CANCELADOS
- Valida se não há débitos pendentes (POS_PAGO NAO_PAGO)
- Se OK: status → DISPONIVEL, remove vínculo com cliente

Ação necessária:
- Em unidadesConsumoService.js, adicionar:
  async fecharUnidade(id) {
    const response = await api.put(`/unidades-consumo/${id}/fechar`)
    return response.data
  }

- Na UI de mesa/unidade:
  * Botão "Fechar Mesa"
  * Validar localmente antes de enviar:
    - Todos pedidos finalizados?
    - Contas pagas?
  * Mostrar confirmação
  * Após fechar: redirecionar para lista de mesas


🔴 7.4 - IMPLEMENTAR DIVISÃO DE CONTA (SPLIT BILL)
Status: PENDENTE (LIMITAÇÃO DO BACKEND)
Problema: Backend não suporta divisão de conta em um pedido

Backend resposta (seção 12.1):
"NÃO existe funcionalidade de split bill automática"

Solução recomendada:
- Criar PEDIDOS SEPARADOS desde o início
- Cada pessoa = 1 pedido
- Todos vinculados à mesma unidade

Ação necessária:
- Documentar no README ou guia do usuário
- Orientar atendentes a criar pedidos separados
- OU implementar workaround no frontend:
  * Modal "Dividir Conta"
  * Permite alocar itens entre N pessoas
  * Cria N pedidos automaticamente


================================================================================
SEÇÃO 8: TESTES E VALIDAÇÕES
================================================================================

🔴 8.1 - TESTAR EM AMBIENTE STAGING
Status: PENDENTE

Backend forneceu credenciais de teste:
- URL STAGING: https://api-staging.restaurante.com
- Admin: +244999999999 / admin123
- Gerente: +244923456789 / gerente123
- Atendente: +244912345678 / atendente123

Ação necessária:
- Atualizar .env com URL de staging
- Testar todos fluxos:
  * Criar pedido PRE_PAGO
  * Criar pedido POS_PAGO (como GERENTE)
  * Tentar POS_PAGO como ATENDENTE (deve dar 403)
  * Cancelar pedido
  * Adicionar/remover itens
  * WebSocket: receber atualizações em tempo real
  * Conflito de concorrência (dois atendentes, mesma mesa)


🔴 8.2 - TESTAR CENÁRIOS DE ERRO
Status: PENDENTE

Cenários obrigatórios:
1. Criar pedido PRE_PAGO sem cliente na unidade (deve dar 400)
2. Criar pedido PRE_PAGO sem saldo suficiente (deve dar 400)
3. Tentar POS_PAGO como ATENDENTE (deve dar 403)
4. Criar pedido com pós-pago desativado (deve dar 403)
5. Exceder limite pós-pago da unidade (deve dar 400)
6. Adicionar produto inativo (deve dar 400)
7. Quantidade > 999 (deve dar 400)
8. Editar pedido EM_ANDAMENTO (deve dar 400)
9. Conflito de versão - dois updates simultâneos (deve dar 409)


🔴 8.3 - VALIDAR PERMISSÕES POR ROLE
Status: PENDENTE

Testar com cada role:
- ATENDENTE:
  * Pode criar PRE_PAGO ✓
  * NÃO pode criar POS_PAGO ✗
  * NÃO pode remover itens ✗
  * Pode cancelar pedido CRIADO ✓
  * NÃO pode cancelar EM_ANDAMENTO ✗
  * Vê apenas pedidos da sua unidade

- GERENTE:
  * Pode criar PRE_PAGO ✓
  * Pode criar POS_PAGO ✓
  * Pode remover itens ✓
  * Pode cancelar qualquer pedido ✓
  * Vê todos pedidos do estabelecimento

- ADMIN:
  * Acesso total


================================================================================
SEÇÃO 9: DOCUMENTAÇÃO E PADRONIZAÇÃO
================================================================================

🔴 9.1 - ATUALIZAR DOCUMENTAÇÃO DO PROJETO
Status: PENDENTE

Arquivos a atualizar:
- README.md: Adicionar seção "Integração Backend"
- docs/IMPLEMENTACAO_PEDIDOS_COMPLETA.md: Atualizar com respostas backend
- ARQUITETURA_PEDIDOS.md: Adicionar detalhes dos endpoints reais

Conteúdo a adicionar:
- URLs dos ambientes (DEV, STAGING, PROD)
- Estrutura exata dos payloads
- Todos os códigos de erro possíveis
- Permissões por role
- Fluxos de WebSocket


🔴 9.2 - CRIAR GUIA DE TRATAMENTO DE ERROS
Status: PENDENTE

Criar docs/ERROS_COMUNS.md:
- Lista de todos erros possíveis
- Status HTTP de cada
- Mensagem exata do backend
- Como tratar no frontend
- Feedback para usuário

Baseado em: RESPOSTA_BACKEND_INTEGRACAO.txt seção 9.2


🔴 9.3 - PADRONIZAR NOMES E TERMOS
Status: PENDENTE

Garantir consistência:
- Backend usa: PRE_PAGO, POS_PAGO
- Frontend deve usar: tipoPagamento: "PRE_PAGO" (não "Pre-Pago", não "prePago")
- Status: CRIADO, EM_ANDAMENTO, FINALIZADO, CANCELADO (uppercase com underscore)
- Roles: ADMIN, GERENTE, ATENDENTE, COZINHA (uppercase)


================================================================================
PRIORIZAÇÃO - ORDEM DE IMPLEMENTAÇÃO SUGERIDA
================================================================================

🔥 SPRINT 1 - CORREÇÕES CRÍTICAS (1-2 dias):
1. Validar cliente vinculado antes de PRE_PAGO (1.2)
2. Validar permissões para POS_PAGO (2.1)
3. Adicionar campo observações aos itens (1.4)
4. Atualizar comentários FUNDO_CONSUMO → PRE_PAGO (6.1)
5. Testar criação de pedido em STAGING (8.1)

⚡ SPRINT 2 - VALIDAÇÕES E SEGURANÇA (2-3 dias):
6. Consultar status global de pós-pago (2.2)
7. Validar quantidade máxima (2.3)
8. Validar produtos inativos (2.4)
9. Mensagens de erro amigáveis (5.4)
10. Testar cenários de erro (8.2)

🚀 SPRINT 3 - WEBSOCKET E TEMPO REAL (3-4 dias):
11. Implementar conexão WebSocket (4.1)
12. Assinar tópicos corretos (4.2)
13. Tratar eventos WebSocket (4.3)
14. Reconexão automática (4.4)
15. Audio notification para pedido pronto (5.3)

🔧 SPRINT 4 - FUNCIONALIDADES AVANÇADAS (3-5 dias):
16. Implementar versionamento em atualizações (3.1)
17. Retry automático em conflito (3.2)
18. Confirmar pagamento POS_PAGO (6.2)
19. Cancelamento de pedido (7.1)
20. Adicionar/remover itens (7.2)
21. Fechamento de unidade (7.3)

📊 SPRINT 5 - UX E RELATÓRIOS (2-3 dias):
22. Mostrar dados do fundo após criação (5.1)
23. Histórico de transações (6.4)
24. Progresso de subpedidos (5.2 - OPCIONAL)
25. Serviço de configuração financeira (6.3)

📚 SPRINT 6 - DOCUMENTAÇÃO E REFINAMENTO (1-2 dias):
26. Atualizar documentação (9.1)
27. Guia de erros (9.2)
28. Padronizar termos (9.3)
29. Validar permissões por role (8.3)


================================================================================
RECURSOS E REFERÊNCIAS
================================================================================

Documentos-chave:
- RESPOSTA_BACKEND_INTEGRACAO.txt (este documento)
- CARTA_BACKEND_INTEGRACAO.txt (perguntas originais)
- docs/ARQUITETURA_PEDIDOS.md (arquitetura frontend já criada)
- docs/IMPLEMENTACAO_PEDIDOS_COMPLETA.md

Arquivos criados que podem ser aproveitados:
- src/api/pedido.api.js (camada HTTP profissional)
- src/services/pedido.service.js (lógica de negócio)
- src/store/pedido.store.js (Pinia store com versionamento)
- src/composables/usePedido.js (interface reativa)
- src/utils/pedido.types.js (tipos e validações)
- src/utils/concurrency.helper.js (resolução de conflitos)

Backend endpoints principais:
- POST /api/pedidos (criar)
- GET /api/pedidos/{id} (detalhes)
- GET /api/pedidos/unidade-consumo/{id}/ativo (pedido ativo da unidade)
- PUT /api/pedidos/{id} (atualizar)
- DELETE /api/pedidos/{id} (cancelar)
- POST /api/pedidos/{id}/itens (adicionar item)
- DELETE /api/pedidos/{id}/itens/{itemId} (remover item)
- PUT /api/pedidos/{id}/confirmar-pagamento (fechar conta POS_PAGO)
- GET /api/configuracao-financeira (config global)
- WebSocket: ws://localhost:8080/ws (DEV)

Swagger:
- DEV: http://localhost:8080/swagger-ui.html
- STAGING: https://api-staging.restaurante.com/swagger-ui.html

Contatos backend:
- Slack: #backend-frontend
- Email: backend-team@restaurante.com
- Reuniões: Segunda/Quarta/Sexta 14h-16h


================================================================================
NOTAS FINAIS
================================================================================

Este plano cobre TODAS as integrações necessárias baseadas nas respostas
detalhadas do backend. Não pulamos nenhuma informação crítica.

Priorize os Sprints 1 e 2 para ter sistema funcional básico em produção.
Sprints 3-6 adicionam robustez, tempo real e UX avançada.

Boa implementação! 🚀

================================================================================
FIM DO PLANO DE AÇÃO
================================================================================
